{
    "compilerOptions": {
        "experimentalDecorators": true,
        "baseUrl": ".",
        "paths": {
            "c/lms-color-box": [
                "lmsColorBox/lmsColorBox.js"
            ],
            "c/lms-home": [
                "lmsHome/lmsHome.js"
            ],
            "c/lms-leave-actions": [
                "lmsLeaveActions/lmsLeaveActions.js"
            ],
            "c/lms-leave-calendar": [
                "lmsLeaveCalendar/lmsLeaveCalendar.js"
            ],
            "c/lms-leave-card": [
                "lmsLeaveCard/lmsLeaveCard.js"
            ],
            "c/lms-leave-history": [
                "lmsLeaveHistory/lmsLeaveHistory.js"
            ],
            "c/lms-leave-history-row": [
                "lmsLeaveHistoryRow/lmsLeaveHistoryRow.js"
            ],
            "c/lms-new-leave": [
                "lmsNewLeave/lmsNewLeave.js"
            ],
            "c/lms-pending-leaves": [
                "lmsPendingLeaves/lmsPendingLeaves.js"
            ],
            "c/lms-pending-leaves-row": [
                "lmsPendingLeavesRow/lmsPendingLeavesRow.js"
            ],
            "c/lms-user-card": [
                "lmsUserCard/lmsUserCard.js"
            ],
            "c/lmslookup": [
                "lmslookup/lmslookup.js"
            ],
            "c/lookup-item": [
                "lookupItem/lookupItem.js"
            ],
            "c/pubsub": [
                "pubsub/pubsub.js"
            ],
            "c/fullcalendar": [
                "../staticresources/fullcalendar/fullcalendar/fullcalendar.js"
            ]
        }
    },
    "include": [
        "**/*",
        "../../../../.sfdx/typings/lwc/**/*.d.ts"
    ]
}